{
  "name": "drupal/flexible_descriptions",
  "type": "drupal-module",
  "description": "Allows easily to manage field descriptions across content entity types.",
  "license": "GPL-2.0-or-later",
  "homepage": "https://www.drupal.org/project/flexible_descriptions",
  "support": {
    "issues": "https://www.drupal.org/project/issues/flexible_descriptions",
    "source": "https://www.drupal.org/project/flexible_descriptions"
  },
  "require": {
    "htmx/htmx": "*"
  },
  "repositories": {
    "htmx": {
      "type": "package",
      "package": {
        "name": "htmx/htmx",
        "version": "1.19.10",
        "type": "drupal-library",
        "extra": {
          "installer-name": "htmx"
        },
        "dist": {
          "url": "https://registry.npmjs.org/htmx.org/-/htmx.org-1.9.10.tgz",
          "type": "tar"
        },
        "license": "BSD-0-Clause"
      }
    }
  }
}
